{
    "jfsku": null,
    "name": "ffn-509",
    "merchantSku": "P-000025",
    "productGroup": null,
    "originCountry": "DE",
    "manufacturer": null,
    "weight": null,
    "note": null,
    "modificationInfo": null,
    "identifier": {
        "asin": null,
        "ean": null,
        "isbn": null,
        "mpn": {
            "manufacturer": null,
            "partNumber": null
        },
        "upc": null
    },
    "specifications": {
        "fnsku": null,
        "hazardIdentifier": null,
        "isBatch": false,
        "isBestBefore": false,
        "isDivisible": false,
        "isSerialNumber": false,
        "isBillOfMaterials": false,
        "billOfMaterialsComponents": [],
        "taric": null,
        "unNumber": null
    },
    "dimensions": {
        "height": null,
        "length": null,
        "width": null
    },
    "attributes": [],
    "bundles": [],
    "netRetailPrice": {
        "amount": null,
        "currency": null
    },
    "stock": {
        "stockLevel": null,
        "stockLevelAnnounced": null,
        "stockLevelReserved": null,
        "stockLevelBlocked": null
    },
    "openInbounds": [],
    "openOutbound": []
}
