{
    "modificationInfo": {
        "createdAt": "2009-06-15T13:45:30.0000000Z",
        "updatedAt": "2009-06-15T13:45:30.0000000Z",
        "deletedAt": "2009-06-15T13:45:30.0000000Z",
        "state": "New"
    },
    "userId": "ABCD",
    "address": {
        "salutation": "string",
        "firstName": "string",
        "lastName": "string",
        "company": "string",
        "street": "string",
        "city": "string",
        "zip": "string",
        "country": "string",
        "email": "string",
        "phone": "string",
        "extraLine": "string",
        "extraAddressLine": "string",
        "state": "string",
        "mobile": "string",
        "fax": "string"
    }
}
