{
    "items": [
        {
            "merchantId": "HJ23",
            "modificationInfo": {
                "createdAt": "2009-06-15T13:45:30.0000000Z",
                "updatedAt": "2009-06-15T13:45:30.0000000Z",
                "deletedAt": "2009-06-15T13:45:30.0000000Z",
                "state": "New"
            },
            "jfsku": "FULF04XX",
            "pictures": [
                {
                    "url": "string",
                    "hash": "string",
                    "size": 0,
                    "mimeType": "string",
                    "number": 0
                }
            ],
            "name": "string",
            "merchantSku": "string",
            "productGroup": "string",
            "originCountry": "string",
            "weight": 353.7,
            "netWeight": 329.3,
            "note": "string",
            "identifier": {
                "mpn": {
                    "manufacturer": "string",
                    "partNumber": "string"
                },
                "ean": "string",
                "isbn": "string",
                "upc": "string",
                "asin": "string",
                "epid": "string"
            },
            "specifications": {
                "unNumber": "string",
                "hazardIdentifier": "string",
                "taric": "string",
                "isBatch": true,
                "isDivisible": true,
                "isBestBefore": true,
                "isSerialNumber": true,
                "isBillOfMaterials": true,
                "billOfMaterialsComponents": [
                    {
                        "jfsku": "string",
                        "quantity": 0
                    }
                ]
            },
            "dimensions": {
                "height": 20.5,
                "length": 35,
                "width": 35.7
            },
            "attributes": [
                {
                    "key": "string",
                    "value": "string",
                    "attributeType": "String"
                }
            ],
            "purchasePrice": {
                "amount": 0,
                "currency": "string"
            },
            "bundles": [
                {
                    "ean": "string",
                    "upc": "string",
                    "name": "string",
                    "quantity": 5.4
                }
            ]
        }
    ],
    "_page": {
        "total": 0,
        "limit": 0,
        "offset": 0
    },
    "_links": {
        "previous": "string",
        "next": "string"
    }
}
