{
    "nextChunkUrl": "https://ffn2.api.jtl-software.com/api/v1/fulfiller/returns/updates?fromDate=2020-02-11T16%3a05%3a06.834%2b00%3a00&toDate=2020-02-11T16%3a07%3a22.385%2b00%3a00&page=2&ignoreOwnApplicationId=false&ignoreOwnUserId=false",
    "from": "2022-01-11T10:05:36Z",
    "to": "2022-01-11T10:05:36Z",
    "data": [
        {
            "id": "FoooFlipp2134",
            "updatedAt": "2022-01-11T10:05:36Z",
            "modificationState": "New",
            "modifiedFrom": "string",
            "changes": {
                "returnId": {
                    "value": "FoooFlipp21123",
                    "previousValue": "string"
                },
                "merchantId": {
                    "value": "FoooFlipp2113456",
                    "previousValue": "string"
                },
                "warehouseId": {
                    "value": "string",
                    "previousValue": "string"
                },
                "merchantReturnNumber": {
                    "value": "string",
                    "previousValue": "string"
                },
                "fulfillerReturnNumber": {
                    "value": "string",
                    "previousValue": "string"
                },
                "contact": {
                    "value": "string",
                    "previousValue": "string"
                },
                "internalNote": {
                    "value": "string",
                    "previousValue": "string"
                },
                "externalNote": {
                    "value": "string",
                    "previousValue": "string"
                },
                "customerAddress": {
                    "salutation": {
                        "value": "string",
                        "previousValue": "string"
                    },
                    "firstname": {
                        "value": "string",
                        "previousValue": "string"
                    },
                    "lastname": {
                        "value": "string",
                        "previousValue": "string"
                    },
                    "company": {
                        "value": "string",
                        "previousValue": "string"
                    },
                    "street": {
                        "value": "string",
                        "previousValue": "string"
                    },
                    "city": {
                        "value": "string",
                        "previousValue": "string"
                    },
                    "zip": {
                        "value": "string",
                        "previousValue": "string"
                    },
                    "country": {
                        "value": "string",
                        "previousValue": "string"
                    },
                    "email": {
                        "value": "string",
                        "previousValue": "string"
                    },
                    "phone": {
                        "value": "string",
                        "previousValue": "string"
                    },
                    "extraLine": {
                        "value": "string",
                        "previousValue": "string"
                    },
                    "extraAddressLine": {
                        "value": "string",
                        "previousValue": "string"
                    },
                    "state": {
                        "value": "string",
                        "previousValue": "string"
                    },
                    "mobile": {
                        "value": "string",
                        "previousValue": "string"
                    },
                    "fax": {
                        "value": "string",
                        "previousValue": "string"
                    }
                },
                "state": {
                    "value": "Announced",
                    "previousValue": "Announced"
                },
                "items": [
                    {
                        "id": "FoooFlipp123523",
                        "updatedAt": "2022-01-11T10:05:36Z",
                        "modificationState": "New",
                        "modifiedFrom": "string",
                        "changes": {
                            "returnItemId": {
                                "value": "string",
                                "previousValue": "string"
                            },
                            "jfsku": {
                                "value": "string",
                                "previousValue": "string"
                            },
                            "merchantSku": {
                                "value": "string",
                                "previousValue": "string"
                            },
                            "outboundId": {
                                "value": "string",
                                "previousValue": "string"
                            },
                            "outboundItemId": {
                                "value": "string",
                                "previousValue": "string"
                            },
                            "quantity": {
                                "value": 0,
                                "previousValue": 0
                            },
                            "reason": {
                                "value": "NoReason",
                                "previousValue": "NoReason"
                            },
                            "reasonNote": {
                                "value": "string",
                                "previousValue": "string"
                            },
                            "conditionNote": {
                                "value": "string",
                                "previousValue": "string"
                            },
                            "state": {
                                "value": "Announced",
                                "previousValue": "Announced"
                            },
                            "condition": {
                                "value": "Unknown",
                                "previousValue": "Unknown"
                            },
                            "stockChanges": [
                                {
                                    "id": {
                                        "warehouseId": "FULF04XX-12345-0001",
                                        "jfsku": "MERC01PRDCT",
                                        "stockVersion": 30220
                                    },
                                    "updatedAt": "2022-01-11T10:05:36Z",
                                    "modificationState": "New",
                                    "modifiedFrom": "string",
                                    "changes": {
                                        "stockChangeId": {
                                            "warehouseId": {
                                                "value": "string",
                                                "previousValue": "string"
                                            },
                                            "jfsku": {
                                                "value": "string",
                                                "previousValue": "string"
                                            },
                                            "stockVersion": {
                                                "value": 0,
                                                "previousValue": 0
                                            }
                                        },
                                        "merchantSku": {
                                            "value": "string",
                                            "previousValue": "string"
                                        },
                                        "quantity": {
                                            "value": 0,
                                            "previousValue": 0
                                        },
                                        "quantityBlocked": {
                                            "value": 0,
                                            "previousValue": 0
                                        }
                                    }
                                }
                            ]
                        }
                    }
                ],
                "writeLock": {
                    "lockedByUserId": {
                        "value": "string",
                        "previousValue": "string"
                    },
                    "lockedAt": {
                        "value": "2022-01-11T10:05:36Z",
                        "previousValue": "2022-01-11T10:05:36Z"
                    },
                    "lockedUntil": {
                        "value": "2022-01-11T10:05:36Z",
                        "previousValue": "2022-01-11T10:05:36Z"
                    }
                }
            }
        }
    ],
    "moreDataAvailable": true
}